03: Random Walk Model
…
Random Walk (aka Naive) Model

We fit 1 naive model per combination of key variables:
family x store_nbr.

sales_naive_model <- model(
  .data = df_train,
  `Naive Model` = NAIVE(sales)
)

sales_naive_model

## # A mable: 1,782 x 3
## # Key:     family, store_nbr [1,782]
##    family     store_nbr `Naive Model`
##    <chr>          <dbl>       <model>
##  1 AUTOMOTIVE         1       <NAIVE>
##  2 AUTOMOTIVE         2       <NAIVE>
##  3 AUTOMOTIVE         3       <NAIVE>
##  4 AUTOMOTIVE         4       <NAIVE>
##  5 AUTOMOTIVE         5       <NAIVE>
##  6 AUTOMOTIVE         6       <NAIVE>
##  7 AUTOMOTIVE         7       <NAIVE>
##  8 AUTOMOTIVE         8       <NAIVE>
##  9 AUTOMOTIVE         9       <NAIVE>
## 10 AUTOMOTIVE        10       <NAIVE>
## #  1,772 more rows
…
